first set :
cbr packet size : 500
que_len : 20
mod_ cbr=0.1
les_ cbr-0.5
high_ cbr=1Mb
link_speed=0.01Mb

Second set :
cbr packet size : 500
que_len : 20
mod_ cbr=0.1
les_ cbr-0.5
high_ cbr=1Mb
link_speed=0.1Mb

Third set :
cbr packet size : 500
que_len : 20
mod_ cbr=0.1
les_ cbr-0.5
high_ cbr=1Mb
link_speed=1Mb
