Results from value iteration :
solution :
iterations : 26
optimal policy : [ 1.  1.  1.  1.  1.  1.  1.  1.  1.  1.  1.  1.  1.  1.  1.  1.  1.  1.
  1.  1.  1.]
value_function :
[ 3.26962173  3.25518216  3.23456332  3.21366259  3.19923066  3.18479872
  3.16133344  3.14139593  3.11968492  3.10543852  3.09119211  3.06975502
  3.0557431   3.02483996  3.01075359  2.99256426  2.9726894   2.95898841
  2.94170598  2.92059123  2.9096301 ]
[ 3.32669376  3.31220205  3.29150617  3.27060984  3.25612765  3.24164546
  3.21808953  3.19484376  3.17197851  3.15781648  3.14365445  3.12191945
  3.10800436  3.07733018  3.06334168  3.04527452  3.02541403  3.01181322
  2.99465571  2.97369614  2.95730358]
pomdp_monte_Carlo value_function:
[ 3.2879503   3.25300418  3.23098472  3.29044674  3.33194817  3.33421048
  3.11359595  3.17750102  3.09556309  3.14655051  3.14051982  3.11928971
  3.09731337  3.21557019  2.98876816  3.02054836  3.0246796   2.97890941
  2.872405    3.00063735  2.88688729]
iist@IIST-InternLab09:~/Desktop/internship/pomdp$ python runner_v1.py
Results from value iteration :
solution :
iterations : 26
optimal policy : [ 1.  1.  1.  1.  1.  1.  1.  1.  1.  1.  1.  1.  1.  1.  1.  1.  1.  1.
  1.  1.  1.]
value_function :
[ 3.26962173  3.25518216  3.23456332  3.21366259  3.19923066  3.18479872
  3.16133344  3.14139593  3.11968492  3.10543852  3.09119211  3.06975502
  3.0557431   3.02483996  3.01075359  2.99256426  2.9726894   2.95898841
  2.94170598  2.92059123  2.9096301 ]
[ 3.32669376  3.31220205  3.29150617  3.27060984  3.25612765  3.24164546
  3.21808953  3.19484376  3.17197851  3.15781648  3.14365445  3.12191945
  3.10800436  3.07733018  3.06334168  3.04527452  3.02541403  3.01181322
  2.99465571  2.97369614  2.95730358]
pomdp_monte_Carlo value_function:
[ 3.28273947  3.30546264  3.27289284  3.22216117  3.26564754  3.1912276
  3.19313547  3.14248472  3.19568976  3.08928797  3.15269571  3.05063748
  3.0463435   3.03654001  3.00764538  3.00055109  3.00905888  2.97258422
  2.9593768   2.94545055  2.98429225]
iist@IIST-InternLab09:~/Desktop/internship/pomdp$ python runner_v1.py
Results from value iteration :
solution :
iterations : 26
optimal policy : [ 1.  1.  1.  1.  1.  1.  1.  1.  1.  1.  1.  1.  1.  1.  1.  1.  1.  1.
  1.  1.  1.]
value_function :
[ 3.26962173  3.25518216  3.23456332  3.21366259  3.19923066  3.18479872
  3.16133344  3.14139593  3.11968492  3.10543852  3.09119211  3.06975502
  3.0557431   3.02483996  3.01075359  2.99256426  2.9726894   2.95898841
  2.94170598  2.92059123  2.9096301 ]
[ 3.32669376  3.31220205  3.29150617  3.27060984  3.25612765  3.24164546
  3.21808953  3.19484376  3.17197851  3.15781648  3.14365445  3.12191945
  3.10800436  3.07733018  3.06334168  3.04527452  3.02541403  3.01181322
  2.99465571  2.97369614  2.95730358]
pomdp_monte_Carlo value_function:
[ 3.3428947   3.29147698  3.28602686  3.26711518  3.20420933  3.20897025
  3.17202481  3.20828168  3.18091196  3.20452564  3.11881719  3.19369103
  3.05980721  3.04772281  3.07884853  3.04873984  2.98985742  3.0174241
  3.06516547  2.96919417  2.93152691]
iist@IIST-InternLab09:~/Desktop/internship/pomdp$ python runner_v1.py
Results from value iteration :
solution :
iterations : 42
optimal policy : [ 1.  1.  1.  1.  1.  1.  1.  1.  1.  1.  1.  1.  1.  1.  1.  1.  1.  1.
  1.  1.  1.]
value_function :
[ 7.91379789  7.72096943  7.30248767  7.09209985  6.83288035  6.33744822
  6.07477918  5.88737349  5.5540869   5.42939579  4.96139706  4.49720797
  4.37231201  4.03840491  3.85080896  3.58810273  3.08419191  2.8253937
  2.61422028  2.18426259  1.97844947]
[ 8.          7.79427931  7.36307496  7.15110778  6.89009894  6.38416756
  6.12002111  5.93150501  5.59602797  5.47057553  5.          4.52942447
  4.40397203  4.06849499  3.87997889  3.61583244  3.10990106  2.84889222
  2.63692504  2.20572069  2.        ]
pomdp_monte_Carlo value_function:
[ 8.04179872  7.67141156  7.34275386  7.0712629   6.80608456  6.49196694
  6.09050498  5.89626858  5.62252315  5.40033424  5.05066123  4.55639145
  4.44491966  4.09412059  3.91050098  3.60946708  3.19296329  2.98427369
  2.623654    2.18323839  1.99806631]
iist@IIST-InternLab09:~/Desktop/internship/pomdp$ python runner_v1.py
Results from value iteration :
solution :
iterations : 29
optimal policy : [ 1.  1.  1.  1.  1.  1.  1.  1.  1.  1.  1.  1.  1.  1.  1.  1.  1.  1.
  1.  1.  1.]
value_function :
[ 1.91521768  1.91521768  1.91521768  1.91521768  1.91521768  1.91521768
  1.91521768  1.91521768  1.91521768  1.91521768  1.91521768  1.91521768
  1.91521768  1.91521768  1.91521768  1.91521768  1.91521768  1.91521768
  1.91521768  1.91521768  1.91521768]
[ 2.  2.  2.  2.  2.  2.  2.  2.  2.  2.  2.  2.  2.  2.  2.  2.  2.  2.
  2.  2.  2.]
pomdp_monte_Carlo value_function:
[ 1.98915987  1.94227699  2.01247851  2.03036356  2.0231011   1.97775945
  1.98494868  1.97986712  2.00805418  2.0186195   1.98011152  1.99783943
  1.98016475  1.98494142  2.01483726  1.96115615  1.98312304  1.98530633
  1.98471767  1.98220757  2.01406465]
iist@IIST-InternLab09:~/Desktop/internship/pomdp$ python runner_v1.py
Results from value iteration :
solution :
iterations : 23
optimal policy : [ 1.  1.  1.  1.  1.  1.  1.  1.  1.  1.  1.  1.  1.  1.  1.  1.  1.  1.
  1.  1.  1.]
value_function :
[ 4.80564075  4.8267522   4.82851142  4.8485753   4.86658026  4.88969677
  4.90409417  4.92474884  4.93383706  4.95884903  4.96535816  4.97185404
  4.99686662  5.0059052   5.02632895  5.0408132   5.0639955   5.08202613
  5.102175    5.10396413  5.12507668]
[ 4.84210526  4.86309611  4.8647728   4.88562776  4.90378518  4.92713386
  4.94190252  4.96036767  4.96878862  4.99373318  5.          5.00626682
  5.03121138  5.03963233  5.05809748  5.07286614  5.09621482  5.11437224
  5.1352272   5.13690389  5.15789474]
pomdp_monte_Carlo value_function:
[ 4.8317578   4.8494817   4.89312349  4.8809461   4.88352664  4.89622671
  4.94161459  4.97170437  4.93108999  4.98541345  4.98967249  4.98753029
  5.0164405   5.02893724  5.05316552  5.10738673  5.07217398  5.07407739
  5.10467731  5.09390613  5.13676552]
iist@IIST-InternLab09:~/Desktop/internship/pomdp$ python runner_v1.py
Results from value iteration :
solution :
iterations : 31
optimal policy : [ 1.  1.  1.  1.  1.  1.  1.  1.  1.  1.  1.  1.  1.  1.  1.  1.  1.  1.
  1.  1.  1.]
value_function :
[ 4.93999788  4.93999788  4.93999788  4.93999788  4.93999788  4.94404511
  4.94404511  4.94404511  4.94404511  4.94404511  4.94404511  4.94404511
  4.94404511  4.94404511  4.94404511  4.94404511  4.94404511  4.94781935
  4.94781935  4.94781935  4.94781935]
[ 5.  5.  5.  5.  5.  5.  5.  5.  5.  5.  5.  5.  5.  5.  5.  5.  5.  5.
  5.  5.  5.]
pomdp_monte_Carlo value_function:
[ 4.99064099  4.95045484  5.02914144  5.02088358  4.9614347   4.95307828
  4.95758163  5.00628687  4.97648935  5.02848978  4.97482402  4.98616966
  4.94530256  4.98134901  4.93351898  5.05274351  4.98169036  4.97860259
  4.96587222  4.98533962  4.99690146]
iist@IIST-InternLab09:~/Desktop/internship/pomdp$ python runner_v1.py
Results from value iteration :
solution :
iterations : 38
optimal policy : [ 1.  1.  1.  1.  1.  1.  1.  1.  1.  1.  1.  1.  1.  1.  1.  1.  1.  1.
  1.  1.  1.]
value_function :
[ 4.91788398  4.91788398  4.91788398  4.91788398  4.91788398  4.91788398
  4.91788398  4.91788398  4.91788398  4.91788398  4.91788398  4.91788398
  4.91788398  4.91788398  4.92609559  4.93348603  4.93348603  4.93348603
  4.93348603  4.93348603  4.93348603]
[ 5.  5.  5.  5.  5.  5.  5.  5.  5.  5.  5.  5.  5.  5.  5.  5.  5.  5.
  5.  5.  5.]
pomdp_monte_Carlo value_function:
[ 5.03670387  4.99176114  4.94741804  4.96735864  4.98767962  5.00404384
  4.9181475   4.97583753  5.09655166  5.04018195  5.02472986  4.97229694
  5.01797609  5.02026517  4.99060983  5.05979809  4.97856098  4.97403947
  5.01745252  4.89695635  4.97421644]
iist@IIST-InternLab09:~/Desktop/internship/pomdp$ python runner_v1.py
Results from value iteration :
solution :
iterations : 34
optimal policy : [ 1.  1.  1.  1.  1.  1.  1.  1.  1.  1.  1.  1.  1.  1.  1.  1.  1.  1.
  1.  1.  1.]
value_function :
[ 6.52252881  6.53156365  6.53702884  6.54249403  6.54795922  6.55342441
  6.55888959  6.56435478  6.56981997  6.57528516  6.58075034  6.58621553
  6.59168072  6.59714591  6.6026111   6.60807628  6.61354147  6.61900666
  6.62447185  6.62993703  6.63540222]
[ 6.59340659  6.5989011   6.6043956   6.60989011  6.61538462  6.62087912
  6.62637363  6.63186813  6.63736264  6.64285714  6.64835165  6.65384615
  6.65934066  6.66483516  6.67032967  6.67582418  6.68131868  6.68681319
  6.69230769  6.6978022   6.7032967 ]
pomdp_monte_Carlo value_function:
[ 6.61764702  6.64687695  6.67643615  6.60403731  6.58290634  6.60802303
  6.61814307  6.67672274  6.6766086   6.60825087  6.67816077  6.62015258
  6.64749421  6.68684699  6.69505844  6.73614562  6.65449309  6.65301142
  6.73371456  6.66556865  6.72949616]
iist@IIST-InternLab09:~/Desktop/internship/pomdp$